^F:\SISTEMACARRITO\SISTEMACARRITO\CARRITO.RESX|F:\SISTEMACARRITO\SISTEMACARRITO\GESTIONCATEGORIAS.RESX|F:\SISTEMACARRITO\SISTEMACARRITO\GESTIONDESC.RESX|F:\SISTEMACARRITO\SISTEMACARRITO\GESTIONPRODUCTO.RESX|F:\SISTEMACARRITO\SISTEMACARRITO\LOGIN.RESX|F:\SISTEMACARRITO\SISTEMACARRITO\NUEVACATEGORIA.RESX|F:\SISTEMACARRITO\SISTEMACARRITO\PROPERTIES\RESOURCES.RESX
F:\SISTEMACARRITO\SISTEMACARRITO\OBJ\X86\DEBUG\VISTA.CARRITO.RESOURCES
F:\SISTEMACARRITO\SISTEMACARRITO\OBJ\X86\DEBUG\SISTEMACARRITO.FRMCATEGORIA.RESOURCES
F:\SISTEMACARRITO\SISTEMACARRITO\OBJ\X86\DEBUG\SISTEMACARRITO.GESTIONDESC.RESOURCES
F:\SISTEMACARRITO\SISTEMACARRITO\OBJ\X86\DEBUG\VISTA.GESTIONPRODUCTO.RESOURCES
F:\SISTEMACARRITO\SISTEMACARRITO\OBJ\X86\DEBUG\VISTA.LOGIN.RESOURCES
F:\SISTEMACARRITO\SISTEMACARRITO\OBJ\X86\DEBUG\VISTA.NUEVACATEGORIA.RESOURCES
F:\SISTEMACARRITO\SISTEMACARRITO\OBJ\X86\DEBUG\VISTA.PROPERTIES.RESOURCES.RESOURCES
^C:\USERS\ALUMNO\DESKTOP\SISTEMACARRITO\SISTEMACARRITO\CARRITO.RESX|C:\USERS\ALUMNO\DESKTOP\SISTEMACARRITO\SISTEMACARRITO\GESTIONCATEGORIAS.RESX|C:\USERS\ALUMNO\DESKTOP\SISTEMACARRITO\SISTEMACARRITO\GESTIONDESC.RESX|C:\USERS\ALUMNO\DESKTOP\SISTEMACARRITO\SISTEMACARRITO\GESTIONPRODUCTO.RESX|C:\USERS\ALUMNO\DESKTOP\SISTEMACARRITO\SISTEMACARRITO\LOGIN.RESX|C:\USERS\ALUMNO\DESKTOP\SISTEMACARRITO\SISTEMACARRITO\NUEVACATEGORIA.RESX|C:\USERS\ALUMNO\DESKTOP\SISTEMACARRITO\SISTEMACARRITO\PROPERTIES\RESOURCES.RESX
C:\USERS\ALUMNO\DESKTOP\SISTEMACARRITO\SISTEMACARRITO\OBJ\X86\DEBUG\VISTA.CARRITO.RESOURCES
C:\USERS\ALUMNO\DESKTOP\SISTEMACARRITO\SISTEMACARRITO\OBJ\X86\DEBUG\VISTA.LOGIN.RESOURCES
C:\USERS\ALUMNO\DESKTOP\SISTEMACARRITO\SISTEMACARRITO\OBJ\X86\DEBUG\VISTA.PROPERTIES.RESOURCES.RESOURCES
C:\USERS\ALUMNO\DESKTOP\SISTEMACARRITO\SISTEMACARRITO\OBJ\X86\DEBUG\SISTEMACARRITO.FRMCATEGORIA.RESOURCES
C:\USERS\ALUMNO\DESKTOP\SISTEMACARRITO\SISTEMACARRITO\OBJ\X86\DEBUG\SISTEMACARRITO.GESTIONDESC.RESOURCES
C:\USERS\ALUMNO\DESKTOP\SISTEMACARRITO\SISTEMACARRITO\OBJ\X86\DEBUG\VISTA.GESTIONPRODUCTO.RESOURCES
C:\USERS\ALUMNO\DESKTOP\SISTEMACARRITO\SISTEMACARRITO\OBJ\X86\DEBUG\VISTA.NUEVACATEGORIA.RESOURCES
^C:\USERS\SANTI\DESKTOP\SISTEMACARRITO\SISTEMACARRITO\CARRITO.RESX|C:\USERS\SANTI\DESKTOP\SISTEMACARRITO\SISTEMACARRITO\GESTIONCATEGORIAS.RESX|C:\USERS\SANTI\DESKTOP\SISTEMACARRITO\SISTEMACARRITO\GESTIONDESC.RESX|C:\USERS\SANTI\DESKTOP\SISTEMACARRITO\SISTEMACARRITO\GESTIONPRODUCTO.RESX|C:\USERS\SANTI\DESKTOP\SISTEMACARRITO\SISTEMACARRITO\LOGIN.RESX|C:\USERS\SANTI\DESKTOP\SISTEMACARRITO\SISTEMACARRITO\NUEVACATEGORIA.RESX|C:\USERS\SANTI\DESKTOP\SISTEMACARRITO\SISTEMACARRITO\PROPERTIES\RESOURCES.RESX
C:\USERS\SANTI\DESKTOP\SISTEMACARRITO\SISTEMACARRITO\OBJ\X86\DEBUG\VISTA.CARRITO.RESOURCES
C:\USERS\SANTI\DESKTOP\SISTEMACARRITO\SISTEMACARRITO\OBJ\X86\DEBUG\VISTA.LOGIN.RESOURCES
C:\USERS\SANTI\DESKTOP\SISTEMACARRITO\SISTEMACARRITO\OBJ\X86\DEBUG\VISTA.PROPERTIES.RESOURCES.RESOURCES
C:\USERS\SANTI\DESKTOP\SISTEMACARRITO\SISTEMACARRITO\OBJ\X86\DEBUG\SISTEMACARRITO.FRMCATEGORIA.RESOURCES
C:\USERS\SANTI\DESKTOP\SISTEMACARRITO\SISTEMACARRITO\OBJ\X86\DEBUG\SISTEMACARRITO.GESTIONDESC.RESOURCES
C:\USERS\SANTI\DESKTOP\SISTEMACARRITO\SISTEMACARRITO\OBJ\X86\DEBUG\VISTA.GESTIONPRODUCTO.RESOURCES
C:\USERS\SANTI\DESKTOP\SISTEMACARRITO\SISTEMACARRITO\OBJ\X86\DEBUG\VISTA.NUEVACATEGORIA.RESOURCES
